[
  {
    "name": "Mazda",
    "price": 30,
    "img": "img/01.jpg",
    "vendorCode": 1234560,
    "color": "синий"
  },
  {
    "name": "Overwatch car",
    "price": 35,
    "img": "img/02.jpg",
    "vendorCode": 1234561,
    "color": "серебро"
  },
  {
    "name": "Red Squad",
    "price": 25,
    "img": "img/03.jpg",
    "vendorCode": 1234562,
    "color": "розовый"
  },
  {
    "name": "Lamborghini",
    "price": 26,
    "img": "img/04.jpg",
    "vendorCode": 1234563,
    "color": "белый"
  },
  {
    "name": "Roadster",
    "price": 23,
    "img": "img/05.jpg",
    "vendorCode": 1234564,
    "color": "синий"
  },
  {
    "name": "Muscle car",
    "price": 26,
    "img": "img/06.jpg",
    "vendorCode": 1234565,
    "color": "красный"
  },
  {
    "name": "Icecream bus",
    "price": 26,
    "img": "img/07.jpg",
    "vendorCode": 1234566,
    "color": "голубой"
  },
  {
    "name": "Speedster",
    "price": 16,
    "img": "img/08.jpg",
    "vendorCode": 1234567,
    "color": "сеоебро"
  },
  {
    "name": "Nissan",
    "price": 23,
    "img": "img/09.jpg",
    "vendorCode": 1234568,
    "color": "голубой"
  },
  {
    "name": "Honda",
    "price": 63,
    "img": "img/10.jpg",
    "vendorCode": 1234569,
    "color": "оранжевый"
  }
]
